Sep 22, 2017 1:13:25 PM fibonacci_sequence main
INFO: 0 
Sep 22, 2017 1:13:25 PM fibonacci_sequence main
INFO: 1 
Sep 22, 2017 1:13:25 PM fibonacci_sequence main
INFO: 1 
Sep 22, 2017 1:13:25 PM fibonacci_sequence main
INFO: 2 
Sep 22, 2017 1:13:25 PM fibonacci_sequence main
INFO: 3 
Sep 22, 2017 1:13:25 PM fibonacci_sequence main
INFO: 5 
Sep 22, 2017 1:13:25 PM fibonacci_sequence main
INFO: 8 
Sep 22, 2017 1:13:25 PM fibonacci_sequence main
INFO: 13 
Sep 22, 2017 1:13:25 PM fibonacci_sequence main
INFO: 21 
Sep 22, 2017 1:13:25 PM fibonacci_sequence main
INFO: 34 
Sep 22, 2017 1:13:25 PM fibonacci_sequence main
INFO: 55 
Sep 22, 2017 1:13:25 PM fibonacci_sequence main
INFO: 89 
Sep 22, 2017 1:13:25 PM fibonacci_sequence main
INFO: 144 
Sep 22, 2017 1:13:25 PM fibonacci_sequence main
INFO: 233 
Sep 22, 2017 1:13:25 PM fibonacci_sequence main
INFO: 377 
Sep 22, 2017 1:13:25 PM fibonacci_sequence main
INFO: 610 
Sep 22, 2017 1:13:25 PM fibonacci_sequence main
INFO: 987 
Sep 22, 2017 1:13:25 PM fibonacci_sequence main
INFO: 1597 
Sep 22, 2017 1:13:25 PM fibonacci_sequence main
INFO: 2584 
Sep 22, 2017 1:13:25 PM fibonacci_sequence main
INFO: 4181 
Sep 22, 2017 1:13:25 PM fibonacci_sequence main
INFO: 6765 
Sep 22, 2017 1:13:25 PM fibonacci_sequence main
INFO: 10946 
Sep 22, 2017 1:13:25 PM fibonacci_sequence main
INFO: 17711 
Sep 22, 2017 1:13:25 PM fibonacci_sequence main
INFO: 28657 
Sep 22, 2017 1:13:25 PM fibonacci_sequence main
INFO: 46368 
Sep 22, 2017 1:13:25 PM fibonacci_sequence main
INFO: 75025 
Sep 22, 2017 1:13:25 PM fibonacci_sequence main
INFO: 121393 
Sep 22, 2017 1:13:25 PM fibonacci_sequence main
INFO: 196418 
Sep 22, 2017 1:13:25 PM fibonacci_sequence main
INFO: 317811 
Sep 22, 2017 1:13:25 PM fibonacci_sequence main
INFO: 514229 
Sep 22, 2017 1:13:25 PM fibonacci_sequence main
INFO: 832040 
Sep 22, 2017 1:13:25 PM fibonacci_sequence main
INFO: 1346269 
Sep 22, 2017 1:13:25 PM fibonacci_sequence main
INFO: 2178309 
Sep 22, 2017 1:13:25 PM fibonacci_sequence main
INFO: 3524578 
Sep 22, 2017 1:13:25 PM fibonacci_sequence main
INFO: 5702887 
Sep 22, 2017 1:13:25 PM fibonacci_sequence main
INFO: 9227465 
Sep 22, 2017 1:13:25 PM fibonacci_sequence main
INFO: 14930352 
Sep 22, 2017 1:13:25 PM fibonacci_sequence main
INFO: 24157817 
Sep 22, 2017 1:13:25 PM fibonacci_sequence main
INFO: 39088169 
Sep 22, 2017 1:13:25 PM fibonacci_sequence main
INFO: 63245986 
Sep 22, 2017 1:13:25 PM fibonacci_sequence main
INFO: 102334155 
Sep 22, 2017 1:13:25 PM fibonacci_sequence main
INFO: 165580141 
Sep 22, 2017 1:13:25 PM fibonacci_sequence main
INFO: 267914296 
Sep 22, 2017 1:13:25 PM fibonacci_sequence main
INFO: 433494437 
Sep 22, 2017 1:13:25 PM fibonacci_sequence main
INFO: 701408733 
Sep 22, 2017 1:13:25 PM fibonacci_sequence main
INFO: 1134903170 
Sep 22, 2017 1:13:25 PM fibonacci_sequence main
INFO: 1836311903 
Sep 22, 2017 1:13:25 PM fibonacci_sequence main
INFO: 2971215073 
Sep 22, 2017 1:13:25 PM fibonacci_sequence main
INFO: 4807526976 
Sep 22, 2017 1:13:25 PM fibonacci_sequence main
INFO: 7778742049 
