INDEX VERSION 1.127+/home/drishti/my-workspace/.metadata/.plugins/org.eclipse.jdt.core
1630048316.index
3573095105.index
2362548060.index
1568363744.index
376525347.index
951533880.index
2195425857.index
664046766.index
3096549606.index
3856526589.index
3495136890.index
1736774347.index
876183329.index
3749197377.index
1924688026.index
3298269927.index
1381913691.index
